{
	"name": "Computing",
	"image": "jdukestcd/devcontainer-computing:1.0.0",
	"customizations": {
		"vscode": {
			"extensions": [
				"dan-c-underwood.arm@1.7.4",
				"mcu-debug.debug-tracker-vscode@0.0.15",
				"mcu-debug.memory-view@0.0.25",
				"mcu-debug.rtos-views@0.0.7",
				"mcu-debug.peripheral-viewer@1.4.6",
				"marus25.cortex-debug-dp-stm32f1@1.0.0",
				"marus25.cortex-debug@1.12.1"	
			],
			"settings": {
				"extensions.autoCheckUpdates": false,
				"extensions.autoUpdate": false
			}
		}
	},
	"remoteUser": "vscode",
	"workspaceMount": "source=${localWorkspaceFolder},target=/home/vscode/computing,type=bind","workspaceFolder": "/home/vscode/computing"
}